%YAML 1.1
%TAG !u! tag:unity3d.com,2011:
--- !u!114 &11400000
MonoBehaviour:
  m_ObjectHideFlags: 0
  m_PrefabParentObject: {fileID: 0}
  m_PrefabInternal: {fileID: 0}
  m_GameObject: {fileID: 0}
  m_Enabled: 1
  m_EditorHideFlags: 0
  m_Script: {fileID: 11500000, guid: 7d90f49da3fc3475d8fa39cba04e0789, type: 3}
  m_Name: LanguageDatabase
  m_EditorClassIdentifier: 
  database:
  - word: language
    wordTranslation:
    - country: 0
      meaning: "\u0644\u063A\u0629"
    - country: 1
      meaning: "\u8BED\u8A00"
    - country: 2
      meaning: taal
    - country: 3
      meaning: language
    - country: 4
      meaning: wika
    - country: 5
      meaning: la langue
    - country: 6
      meaning: Sprache
    - country: 7
      meaning: "\u092D\u093E\u0937\u093E"
    - country: 8
      meaning: bahasa
    - country: 9
      meaning: "\u8A00\u8A9E"
    - country: 10
      meaning: "\u044F\u0437\u044B\u043A"
    - country: 11
      meaning: idioma
    - country: 12
      meaning: dil
    - country: 13
      meaning: "\u0632\u0628\u0627\u0646"
  - word: home
    wordTranslation:
    - country: 0
      meaning: "\u0627\u0644\u0635\u0641\u062D\u0629 \u0627\u0644\u0631\u0626\u064A\u0633\u064A\u0629"
    - country: 1
      meaning: "\u5BB6"
    - country: 3
      meaning: home
  - word: back
    wordTranslation:
    - country: 3
      meaning: back
    - country: 6
      meaning: "zur\xFCck"
    - country: 13
      meaning: "\u067E\u06CC\u0686\u06BE\u06D2"
  - word: translation
    wordTranslation:
    - country: 0
      meaning: "\u062A\u0631\u062C\u0645\u0629"
    - country: 1
      meaning: "\u7FFB\u8BD1"
    - country: 2
      meaning: vertaling
    - country: 3
      meaning: translation
    - country: 4
      meaning: pagsasalin
    - country: 5
      meaning: Traduction
    - country: 6
      meaning: "\xDCbersetzung"
    - country: 7
      meaning: "\u0905\u0928\u0941\u0935\u093E\u0926"
    - country: 8
      meaning: terjemahan
    - country: 9
      meaning: "\u7FFB\u8A33"
    - country: 10
      meaning: "\u043F\u0435\u0440\u0435\u0432\u043E\u0434"
    - country: 11
      meaning: "traducci\xF3n"
    - country: 12
      meaning: "\xE7eviri"
    - country: 13
      meaning: "\u062A\u0631\u062C\u0645\u06C1"
  - word: settings
    wordTranslation:
    - country: 0
      meaning: "\u0625\u0639\u062F\u0627\u062F\u0627\u062A"
    - country: 1
      meaning: "\u8BBE\u7F6E"
    - country: 2
      meaning: instellingen
    - country: 3
      meaning: settings
    - country: 4
      meaning: mga setting
    - country: 5
      meaning: "param\xE8tres"
    - country: 6
      meaning: Einstellungen
    - country: 7
      meaning: "\u0938\u0947\u091F\u093F\u0902\u0917\u094D\u0938"
    - country: 8
      meaning: pengaturan
    - country: 9
      meaning: "\u8A2D\u5B9A"
    - country: 10
      meaning: "\u043D\u0430\u0441\u0442\u0440\u043E\u0439\u043A\u0438"
    - country: 11
      meaning: ajustes
    - country: 12
      meaning: ayarlar
    - country: 13
      meaning: "\u062A\u0631\u062A\u06CC\u0628\u0627\u062A"
  - word: play
    wordTranslation:
    - country: 0
      meaning: "\u0644\u0639\u0628"
    - country: 1
      meaning: "\u73A9"
    - country: 2
      meaning: spelen
    - country: 3
      meaning: play
    - country: 4
      meaning: maglaro
    - country: 5
      meaning: jouer
    - country: 6
      meaning: spielen
    - country: 7
      meaning: "\u092A\u094D\u0932\u0947"
    - country: 8
      meaning: bermain
    - country: 9
      meaning: "\u904A\u3073\u307E\u3059"
    - country: 10
      meaning: "\u0438\u0433\u0440\u0430\u0442\u044C"
    - country: 11
      meaning: jugar
    - country: 12
      meaning: oyun
    - country: 13
      meaning: "\u06A9\u06BE\u06CC\u0644\u0646\u0627"
  - word: exit
    wordTranslation:
    - country: 0
      meaning: "\u0649\u062E\u0631\u062C"
    - country: 1
      meaning: "\u51FA\u53E3"
    - country: 2
      meaning: Uitgang
    - country: 3
      meaning: exit
    - country: 4
      meaning: lumabas
    - country: 5
      meaning: Sortie
    - country: 6
      meaning: Ausfahrt
    - country: 7
      meaning: "\u092C\u093E\u0939\u0930 \u091C\u093E\u090F\u0902"
    - country: 8
      meaning: keluar
    - country: 9
      meaning: "\u51FA\u53E3"
    - country: 10
      meaning: "\u0412\u044B\u0445\u043E\u0434"
    - country: 11
      meaning: salida
    - country: 12
      meaning: "\xE7\u0131k\u0131\u015F"
    - country: 13
      meaning: "\u0628\u0627\u06C1\u0631 \u0646\u06A9\u0644\u06CC\u06BA"
  data:
  - translatedTo: -1
    word: language
  - translatedTo: 11
    word: home
  - translatedTo: 8264
    word: back
  - translatedTo: -1
    word: translation
  - translatedTo: -1
    word: settings
  - translatedTo: -1
    word: play
  - translatedTo: -1
    word: exit
  successfullDownloaded: 7
  sourceLanguage: 3
