%YAML 1.1
%TAG !u! tag:unity3d.com,2011:
--- !u!1045 &1
EditorBuildSettings:
  m_ObjectHideFlags: 0
  serializedVersion: 2
  m_Scenes:
  - enabled: 1
    path: Assets/Scenes/1.unity
    guid: 4075d50acd157c74392181724679f97b
  - enabled: 1
    path: Assets/Scenes/2.unity
    guid: c741b8cbae234a941aad45fbb25d8ca3
  - enabled: 1
    path: Assets/Scenes/MAIN.unity
    guid: ab1d8a7485eeddc41b3477961396e463
  - enabled: 0
    path: Assets/AI/Demos/AI_MAIN.unity
    guid: 20f11346167abb3408c1c4d81893ca7c
  - enabled: 1
    path: Assets/Scenes/3.unity
    guid: fb628cbcc8fda3e48a89b1a99dde2c43
  - enabled: 1
    path: Assets/Scenes/4.unity
    guid: 2d7e45c43a954c74eb2893f1bb19971c
  - enabled: 0
    path: Assets/4.unity
    guid: 00000000000000000000000000000000
