%YAML 1.1
%TAG !u! tag:unity3d.com,2011:
--- !u!21 &2100000
Material:
  serializedVersion: 6
  m_ObjectHideFlags: 0
  m_PrefabParentObject: {fileID: 0}
  m_PrefabInternal: {fileID: 0}
  m_Name: LiberationSans SDF - Overlay
  m_Shader: {fileID: 4800000, guid: 9ecb3fe313cb5f7478141eba4a2d54ed, type: 3}
  m_ShaderKeywords: OUTLINE_ON
  m_LightmapFlags: 5
  m_EnableInstancingVariants: 0
  m_DoubleSidedGI: 0
  m_CustomRenderQueue: 4000
  stringTagMap: {}
  disabledShaderPasses: []
  m_SavedProperties:
    serializedVersion: 3
    m_TexEnvs:
    - _MainTex:
        m_Texture: {fileID: 2846298, guid: 715b80e429c437e40867928a4e1fc975, type: 2}
        m_Scale: {x: 1, y: 1}
        m_Offset: {x: 0, y: 0}
    m_Floats:
    - _ColorMask: 15
    - _FaceDilate: 0.069
    - _GradientScale: 10
    - _MaskSoftnessX: 0
    - _MaskSoftnessY: 0
    - _OutlineSoftness: 0
    - _OutlineWidth: 0.045
    - _PerspectiveFilter: 0.875
    - _ScaleRatioA: 0.9
    - _ScaleRatioB: 1
    - _ScaleRatioC: 0.72540003
    - _ScaleX: 1
    - _ScaleY: 1
    - _ShaderFlags: 0
    - _Stencil: 0
    - _StencilComp: 8
    - _StencilOp: 0
    - _StencilReadMask: 255
    - _StencilWriteMask: 255
    - _TextureHeight: 1024
    - _TextureWidth: 1024
    - _UnderlayDilate: 0
    - _UnderlayOffsetX: 0
    - _UnderlayOffsetY: 0
    - _UnderlaySoftness: 0
    - _VertexOffsetX: 0
    - _VertexOffsetY: 0
    - _WeightBold: 0.5
    - _WeightNormal: 0
    m_Colors:
    - _ClipRect: {r: -32767, g: -32767, b: 32767, a: 32767}
    - _FaceColor: {r: 1, g: 1, b: 1, a: 1}
    - _OutlineColor: {r: 0.375, g: 0.375, b: 0.375, a: 1}
    - _UnderlayColor: {r: 0, g: 0, b: 0, a: 0.5}
